[gd_resource type="Animation" format=2]

[resource]
resource_name = "Player_attack"
length = 0.6
step = 0.15
tracks/0/type = "value"
tracks/0/path = NodePath(".:frame")
tracks/0/interp = 1
tracks/0/loop_wrap = true
tracks/0/imported = false
tracks/0/enabled = true
tracks/0/keys = {
"times": PoolRealArray( 0, 0.15, 0.3, 0.45 ),
"transitions": PoolRealArray( 1, 1, 1, 1 ),
"update": 1,
"values": [ 6, 7, 8, 9 ]
}
