[gd_scene load_steps=4 format=2]

[ext_resource path="res://scripts/Map/MapVillage.gd" type="Script" id=1]
[ext_resource path="res://imgs/temp_map.png" type="Texture" id=2]

[sub_resource type="RectangleShape2D" id=1]
extents = Vector2( 16, 16 )

[node name="Area2D" type="Area2D"]
script = ExtResource( 1 )
__meta__ = {
"_edit_group_": true
}

[node name="Sprite" type="Sprite" parent="."]
texture = ExtResource( 2 )
region_enabled = true
region_rect = Rect2( 0, 32, 32, 32 )

[node name="CollisionShape2D" type="CollisionShape2D" parent="."]
shape = SubResource( 1 )
