ID STAT1 MOD1  STAT2 MOD2
0  |1    |+10  |0    |0  |
1  |1    |+25  |2    |-3 |
2  |1    |+25  |3    |-3 |
3  |2    |+2   |0    |0  |
4  |2    |+5   |3    |-3 |
5  |2    |+5   |1    |-20| 
6  |3    |+2   |0    |0  |
7  |3    |+5   |2    |-3 |
8  |3    |+5   |1    |-20|
9  |4    |+3   |0    |0  |
10 |4    |+2   |5    |+1 |
11 |4    |+5   |5    |-2 |
12 |5    |+3   |0    |0  |
13 |5    |+2   |4    |+1 |
14 |5    |+5   |4    |-2 |
15 |6    |+1   |7    |+1 |
16 |6    |+2   |0    |0  |
17 |7    |+2   |0    |0  |
18 |2    |+1   |3    |+1 |
19 |8    |-1   |1    |-10| 
20 |1    |+25  |8    |+1 |
21 |2    |+5   |8    |+1 |
22 |4    |+7   |8    |+1 |
ID STAT1 MOD1  STAT2 MOD2
   0     1     2     3