Sprite  Hp  Str Wil Def Res Wei Acc Sha ai Elem Res      Attack1     Attack2      Attack3
|0      |50 |7 |1  |.15|.05|26 |0  |2   |2  |1132212123411|110 - - - |111 26 -  - |112 - - - |
|1      |80 |12|1  |.30|.10|40 |0  |10  |1  |1320211102111|110 - - - |113 41 - - |- - - - |
|2      |42 |1 |8  |.05|.25|18 |2  |1   |3  |1132212123411|5 - - - |5 28 -  - |5 - - 68 |
|3      |37 |4 |4  |.10|.15|20 |0  |5   |6  |1212312012411|114 - - - |110 - -  - |- - - - |
|4      |38 |2 |1  |.10|.05|17 |0  |7   |5  |1111121211002|110 - - - |116 37 -  - |- - - - |
|5      |35 |1 |8  |.05|.25|19 |0  |2   |1  |1132212123411|12 24 - - |115 28 -  68 |- - - - |
Sprite Hp  Str Wil  Def Res Wei Acc Sha lvl Elem Res         Attack1     Attack2      Attack3
0      1*  2*  3*  4   5   6   7*  8*  9   10(-4)           11(-3)      12(-2)       13(-1)

* = power per week