[gd_scene load_steps=4 format=2]

[ext_resource path="res://scripts/Combat/CombatButton.gd" type="Script" id=1]
[ext_resource path="res://styles/BarBG.tres" type="StyleBox" id=2]

[sub_resource type="StyleBoxFlat" id=1]

[node name="CombatButton" type="Button"]
margin_right = 136.0
margin_bottom = 40.0
script = ExtResource( 1 )
id = -1
id2 = -1
id3 = -1
id4 = -1

[node name="ProgressBar" type="ProgressBar" parent="."]
margin_left = 16.0
margin_top = 32.0
margin_right = 112.0
margin_bottom = 36.0
custom_styles/fg = SubResource( 1 )
custom_styles/bg = ExtResource( 2 )
max_value = 13.0
step = 1.0
value = 13.0
percent_visible = false
[connection signal="pressed" from="." to="." method="_on_CombatButton_pressed"]
